[{"external_urls":{"spotify":"https://open.spotify.com/artist/4DBi4EYXgiqbkxvWUXUzMi"},"followers":{"href":null,"total":214459},"genres":["alternative country","bluegrass","folk","folk-pop","jam band","new americana","old-time","progressive bluegrass","roots rock","stomp and holler","traditional folk"],"href":"https://api.spotify.com/v1/artists/4DBi4EYXgiqbkxvWUXUzMi","id":"4DBi4EYXgiqbkxvWUXUzMi","images":[{"height":640,"url":"https://i.scdn.co/image/9c28bdd91773a727e7efa6dcda2db94a2fb72345","width":640},{"height":320,"url":"https://i.scdn.co/image/473271c22d9303dfe9a9cedfa681b6ef0210ee97","width":320},{"height":160,"url":"https://i.scdn.co/image/3c47ff69d9b8688d4bd27b0ed3dfce0585c06f9a","width":160}],"name":"Old Crow Medicine Show","popularity":60,"type":"artist","uri":"spotify:artist:4DBi4EYXgiqbkxvWUXUzMi"},{"external_urls":{"spotify":"https://open.spotify.com/artist/4tZwfgrHOc3mvqYlEYSvVi"},"followers":{"href":null,"total":4188734},"genres":["electro","electronic","filter house"],"href":"https://api.spotify.com/v1/artists/4tZwfgrHOc3mvqYlEYSvVi","id":"4tZwfgrHOc3mvqYlEYSvVi","images":[{"height":1000,"url":"https://i.scdn.co/image/1914cb5697a8d1564dba418a27a7551d7243b79c","width":1000},{"height":640,"url":"https://i.scdn.co/image/486fee1d3efda3ff7eeee2016d18f279cae9c77e","width":640},{"height":200,"url":"https://i.scdn.co/image/ab7eb5c69836f3d7a124f4c88d42bd8a4b6e127b","width":200},{"height":64,"url":"https://i.scdn.co/image/94a2b2dc5ed7726c7c4cc050b7a1ce210bae6611","width":64}],"name":"Daft Punk","popularity":82,"type":"artist","uri":"spotify:artist:4tZwfgrHOc3mvqYlEYSvVi"}],"total":50,"limit":2,"offset":0,"href":"https://api.spotify.com/v1/me/top/artists?limit=2&offset=0","previous":null,"next":"https://api.spotify.com/v1/me/top/artists?limit=2&offset=2"}]