{"items":[{"external_urls":{"spotify":"https://open.spotify.com/artist/0op3EnoEZ0jQY13sbyoSo2"},"followers":{"href":null,"total":65129},"genres":["cantautor","rock catala","spanish folk"],"href":"https://api.spotify.com/v1/artists/0op3EnoEZ0jQY13sbyoSo2","id":"0op3EnoEZ0jQY13sbyoSo2","images":[{"height":665,"url":"https://i.scdn.co/image/29d94cb03f34695dc191fe08fd456ae37086ec6d","width":999},{"height":426,"url":"https://i.scdn.co/image/18579d32f4ce14e21a83edda8eede68324e33bd5","width":640},{"height":133,"url":"https://i.scdn.co/image/73b509358ab3b1023efa698ff134620b60d2fdbd","width":200},{"height":43,"url":"https://i.scdn.co/image/378b3cdcd5cc7a4d2c96ad4d220c46d298bcdf45","width":64}],"name":"Els Amics De Les Arts","popularity":49,"type":"artist","uri":"spotify:artist:0op3EnoEZ0jQY13sbyoSo2"},{"external_urls":{"spotify":"https://open.spotify.com/artist/503mwh1GWEiWy9bzzpiTFW"},"followers":{"href":null,"total":48820},"genres":["cantautor","rock catala","spanish indie pop"],"href":"https://api.spotify.com/v1/artists/503mwh1GWEiWy9bzzpiTFW","id":"503mwh1GWEiWy9bzzpiTFW","images":[{"height":418,"url":"https://i.scdn.co/image/99eb3e073ea840cd5e6d69cbfd71a34edd00bb60","width":480},{"height":174,"url":"https://i.scdn.co/image/1730563cf3f99f96bf8bbf5f0666004b65c25217","width":200},{"height":56,"url":"https://i.scdn.co/image/152b634ccc0edc25fd5521c185ceef66f5b259ca","width":64}],"name":"Antònia Font","popularity":44,"type":"artist","uri":"spotify:artist:503mwh1GWEiWy9bzzpiTFW"},{"external_urls":{"spotify":"https://open.spotify.com/artist/0kbYTNQb4Pb1rPbbaF0pT4"},"followers":{"href":null,"total":1225417},"genres":["bebop","contemporary post-bop","cool jazz","hard bop","jazz","jazz blues","jazz fusion","jazz trumpet","vocal jazz"],"href":"https://api.spotify.com/v1/artists/0kbYTNQb4Pb1rPbbaF0pT4","id":"0kbYTNQb4Pb1rPbbaF0pT4","images":[{"height":1496,"url":"https://i.scdn.co/image/e6b1cc182b3e397d2aee084959a7e62a0c27f6bd","width":1000},{"height":958,"url":"https://i.scdn.co/image/54a57d5cd1f917a9e475ef67a54b0c03488821b4","width":640},{"height":299,"url":"https://i.scdn.co/image/a6187e7a9251616677bd7271483c4ccd33ece70e","width":200},{"height":96,"url":"https://i.scdn.co/image/ea5d00ec47307152c32178e3785503a1200b32e2","width":64}],"name":"Miles Davis","popularity":67,"type":"artist","uri":"spotify:artist:0kbYTNQb4Pb1rPbbaF0pT4"},{"external_urls":{"spotify":"https://open.spotify.com/artist/7Ln80lUS6He07XvHI8qqHH"},"followers":{"href":null,"total":5536761},"genres":["garage rock","indie rock","modern rock","permanent wave","sheffield indie"],"href":"https://api.spotify.com/v1/artists/7Ln80lUS6He07XvHI8qqHH","id":"7Ln80lUS6He07XvHI8qqHH","images":[{"height":640,"url":"https://i.scdn.co/image/ed0552e9746ed2bbf04ae4bcb5525700ca31522d","width":640},{"height":320,"url":"https://i.scdn.co/image/b435e99aa7f1e27db56b6a4dc9df85e5636b22d6","width":320},{"height":160,"url":"https://i.scdn.co/image/73c4e49abed008fe0c5e4f1437b8b486c7670ecd","width":160}],"name":"Arctic Monkeys","popularity":84,"type":"artist","uri":"spotify:artist:7Ln80lUS6He07XvHI8qqHH"},{"external_urls":{"spotify":"https://open.spotify.com/artist/0XNa1vTidXlvJ2gHSsRi4A"},"followers":{"href":null,"total":1047527},"genres":["alternative rock","dance-punk","garage rock","indie rock","modern rock","new rave","rock"],"href":"https://api.spotify.com/v1/artists/0XNa1vTidXlvJ2gHSsRi4A","id":"0XNa1vTidXlvJ2gHSsRi4A","images":[{"height":640,"url":"https://i.scdn.co/image/445c11fcc1637f94f48cee1d3354d478f10ac403","width":640},{"height":320,"url":"https://i.scdn.co/image/74d44570990858341836261beb39b3faa18f7603","width":320},{"height":160,"url":"https://i.scdn.co/image/83bb403e52b2c05b7420a5ebd8e502915b6ec6ad","width":160}],"name":"Franz Ferdinand","popularity":70,"type":"artist","uri":"spotify:artist:0XNa1vTidXlvJ2gHSsRi4A"}],"total":50,"limit":5,"offset":0,"href":"https://api.spotify.com/v1/me/top/artists?limit=5&offset=0&time_range=long_term","previous":null,"next":"https://api.spotify.com/v1/me/top/artists?limit=5&offset=5&time_range=long_term"}